…
homicide_df
```

    ## # A tibble: 39,692 × 5
    ## # Groups:   city_state [47]
    ##    city_state     solved victim_age victim_race victim_sex
    ##    <chr>           <dbl>      <dbl> <fct>       <chr>     
    ##  1 Albuquerque,NM      0         15 White       Female    
    ##  2 Albuquerque,NM      0         72 White       Female    
    ##  3 Albuquerque,NM      0         91 White       Female    
    ##  4 Albuquerque,NM      0         56 White       Male      
    ##  5 Albuquerque,NM      0         NA White       Male      
    ##  6 Albuquerque,NM      1         43 White       Female    
    ##  7 Albuquerque,NM      1         52 White       Male      
    ##  8 Albuquerque,NM      1         22 White       Female    
    ##  9 Albuquerque,NM      1         15 Black       Male      
    ## 10 Albuquerque,NM      1         25 Black       Male      
    ## # … with 39,682 more rows
…
cities_glm
```

    ## # A tibble: 193 × 5
    ## # Groups:   city_state [47]
    ##    city_state     term                       OR lower_ci upper_ci
    ##    <chr>          <chr>                   <dbl>    <dbl>    <dbl>
    ##  1 Albuquerque,NM (Intercept)       1.84           0.534    6.37 
    ##  2 Albuquerque,NM victim_age        0.981          0.963    0.998
    ##  3 Albuquerque,NM victim_sexMale    1.77           0.831    3.76 
    ##  4 Albuquerque,NM victim_sexUnknown 0.000000471    0      Inf    
    ##  5 Albuquerque,NM victim_raceWhite  1.51           0.668    3.41 
    ##  6 Atlanta,GA     (Intercept)       2.39           1.49     3.83 
    ##  7 Atlanta,GA     victim_age        0.988          0.979    0.997
    ##  8 Atlanta,GA     victim_sexMale    1.00           0.684    1.46 
    ##  9 Atlanta,GA     victim_raceWhite  1.31           0.749    2.28 
    ## 10 Baltimore,MD   (Intercept)       1.36           0.975    1.91 
    ## # … with 183 more rows
…
